User Guide: 2 Radiation
…
## [1] "source_spct"  "generic_spct" "tbl_df"       "tbl"         
## [5] "data.frame"

class(my.df)

## [1] "data.frame"

my.spct

## Object: source_spct [11 x 2]
## Wavelength range 400 to 410 nm, step 1 nm 
## Time unit 1s
## 
## # A tibble: 11 x 2
##   w.length s.e.irrad
##      <int>     <dbl>
## 1      400         1
## 2      401         1
## 3      402         1
## 4      403         1
## # ... with 7 more rows
…
getWhereMeasured(my.spct)$lon

## [1] -10

my.spct

## Object: source_spct [522 x 3]
## Wavelength range 280 to 800 nm, step 0.9230769 to 1 nm 
## Label: sunlight, simulated 
## Measured on 2015-10-31 20:55:00 UTC 
## Measured at 60 N, -10 E 
## Time unit 1s
## 
## # A tibble: 522 x 3
##   w.length s.e.irrad s.q.irrad
##      <dbl>     <dbl>     <dbl>
## 1     280          0         0
## 2     281.         0         0
## 3     282.         0         0
## 4     283.         0         0
## # ... with 518 more rows
…
setWhatMeasured(my.spct, "something")
getWhatMeasured(my.spct)

## [1] "something"

my.spct

## Object: source_spct [522 x 3]
## Wavelength range 280 to 800 nm, step 0.9230769 to 1 nm 
## Label: something 
## Measured on 2015-10-31 20:55:00 UTC 
## Measured at 60 N, -10 E 
## Time unit 1s
## 
## # A tibble: 522 x 3
##   w.length s.e.irrad s.q.irrad
##      <dbl>     <dbl>     <dbl>
## 1     280          0         0
## 2     281.         0         0
## 3     282.         0         0
## 4     283.         0         0
## # ... with 518 more rows
…
Sometimes it may be desired to change the time unit used for expressing spectral irradiance or spectral response, and this can be achieved with the conversion function convertTimeUnit. This function both converts spectral data to the new unit of expression and sets the time.unit attribute, preserving the validity of the data object.

ten.minutes.spct <-
  convertTimeUnit(sun.spct, time.unit = duration(10, "minutes"))
ten.minutes.spct

## Object: source_spct [522 x 3]
## Wavelength range 280 to 800 nm, step 0.9230769 to 1 nm 
## Label: sunlight, simulated 
## Measured on 2010-06-22 09:51:00 UTC 
## Measured at 60.20911 N, 24.96474 E 
## Time unit 600s (~10 minutes)
## 
## # A tibble: 522 x 3
##   w.length s.e.irrad s.q.irrad
##      <dbl>     <dbl>     <dbl>
## 1     280          0         0
## 2     281.         0         0
## 3     282.         0         0
## 4     283.         0         0
## # ... with 518 more rows
…
We can construct a collection using a list of spectral objects as a starting point, in this case the spectral irradiance for sunlight.

two_suns.mspct <- source_mspct(list(sun1 = sun.spct, sun2 = sun.spct))
two_suns.mspct

## Object: source_mspct [2 x 1]
## --- Member: sun1 ---
## Object: source_spct [522 x 3]
## Wavelength range 280 to 800 nm, step 0.9230769 to 1 nm 
## Label: sunlight, simulated 
## Measured on 2010-06-22 09:51:00 UTC 
## Measured at 60.20911 N, 24.96474 E 
## Time unit 1s
## 
## # A tibble: 522 x 3
##   w.length s.e.irrad s.q.irrad
##      <dbl>     <dbl>     <dbl>
## 1     280          0         0
## 2     281.         0         0
## 3     282.         0         0
## 4     283.         0         0
## # ... with 518 more rows
## --- Member: sun2 ---
## Object: source_spct [522 x 3]
## Wavelength range 280 to 800 nm, step 0.9230769 to 1 nm 
## Label: sunlight, simulated 
## Measured on 2010-06-22 09:51:00 UTC 
## Measured at 60.20911 N, 24.96474 E 
## Time unit 1s
## 
## # A tibble: 522 x 3
##   w.length s.e.irrad s.q.irrad
##      <dbl>     <dbl>     <dbl>
## 1     280          0         0
## 2     281.         0         0
## 3     282.         0         0
## 4     283.         0         0
## # ... with 518 more rows
## 
## --- END ---
…
Sometimes spectral data stored in a matrix need to be coerced into a collection of spectra. Coercion methods are defined also for this cases. Several spectra may be stored in a matrix either by row or by column, but this can be deduced automatically in the case of rectangular matrices. Wavelengths values are not expected to be part of the matrix, and need to be supplied as a separate numeric vector sorted in ascending order. As in a spectrum wavelength values never repeat, the vector of wavelengths is never recycled and uniqueness of values is enforced.

We here use artificial data, in this first example with spectra saved by column. We assume that the values in the matrix are spectral transmittance stored as percentages (hence “Tpc”).

x <- matrix(1:100, ncol = 2)
wl <- 501:550 # wavelengths in nanometres
as.filter_mspct(x, wl, "Tpc")

## Object: filter_mspct [0 x 3]
## --- Member: spct_1 ---
## Object: filter_spct [50 x 2]
## Wavelength range 501 to 550 nm, step 1 nm 
## 
## # A tibble: 50 x 2
##   w.length   Tfr
##      <dbl> <dbl>
## 1      501  0.01
## 2      502  0.02
## 3      503  0.03
## 4      504  0.04
## # ... with 46 more rows
## --- Member: spct_2 ---
## Object: filter_spct [50 x 2]
## Wavelength range 501 to 550 nm, step 1 nm 
## 
## # A tibble: 50 x 2
##   w.length   Tfr
##      <dbl> <dbl>
## 1      501  0.51
## 2      502  0.52
## 3      503  0.53
## 4      504  0.54
## # ... with 46 more rows
## 
## --- END ---

In a second example we supply explicit names for the spectra.

as.filter_mspct(x, wl, "Tpc", spct.names = c("A", "B"))

## Object: filter_mspct [0 x 3]
## --- Member: A ---
## Object: filter_spct [50 x 2]
## Wavelength range 501 to 550 nm, step 1 nm 
## 
## # A tibble: 50 x 2
##   w.length   Tfr
##      <dbl> <dbl>
## 1      501  0.01
## 2      502  0.02
## 3      503  0.03
## 4      504  0.04
## # ... with 46 more rows
## --- Member: B ---
## Object: filter_spct [50 x 2]
## Wavelength range 501 to 550 nm, step 1 nm 
## 
## # A tibble: 50 x 2
##   w.length   Tfr
##      <dbl> <dbl>
## 1      501  0.51
## 2      502  0.52
## 3      503  0.53
## 4      504  0.54
## # ... with 46 more rows
## 
## --- END ---

There is no change in the call for data stored by row. We create a new matrix, with the same data as above, but stored by row, as some R packages do.

xrow <- matrix(1:100, nrow = 2, byrow = TRUE)
as.filter_mspct(xrow, wl, "Tpc")

## Object: filter_mspct [0 x 3]
## --- Member: spct_1 ---
## Object: filter_spct [50 x 2]
## Wavelength range 501 to 550 nm, step 1 nm 
## 
## # A tibble: 50 x 2
##   w.length   Tfr
##      <dbl> <dbl>
## 1      501  0.01
## 2      502  0.02
## 3      503  0.03
## 4      504  0.04
## # ... with 46 more rows
## --- Member: spct_2 ---
## Object: filter_spct [50 x 2]
## Wavelength range 501 to 550 nm, step 1 nm 
## 
## # A tibble: 50 x 2
##   w.length   Tfr
##      <dbl> <dbl>
## 1      501  0.51
## 2      502  0.52
## 3      503  0.53
## 4      504  0.54
## # ... with 46 more rows
## 
## --- END ---
…
two_suns.spct <- rbindspct(list(a = sun.spct, b = sun.spct / 2))
two_suns.spct

## Object: source_spct [1,044 x 4]
## containing 2 spectra in long form
## Wavelength range 280 to 800 nm, step 0.9230769 to 1 nm 
## a label: sunlight, simulated
## b label: sunlight, simulated 
## a measured on 2010-06-22 09:51:00 UTC
## b measured on 2010-06-22 09:51:00 UTC 
## a measured at 60.20911 N, 24.96474 E
## b measured at 60.20911 N, 24.96474 E 
## Time unit 1s
## 
## # A tibble: 1,044 x 4
##   w.length s.e.irrad spct.idx s.q.irrad
##      <dbl>     <dbl> <fct>        <dbl>
## 1     280          0 a                0
## 2     281.         0 a                0
## 3     282.         0 a                0
## 4     283.         0 a                0
## # ... with 1,040 more rows

The reverse operation, separating the individual spectra from a spectrum object containing multiple spectra in long form and storing them as a collection, is implemented in method subset2mspct. In this case, metadata is set for the individual spectra if it is available in the object being subset. What metadata is automatically stored depends on the version of this package used when creating the long form spectrum object by means of rbindspct(). Versions 0.9.14 and later preserve most of the metadata.

subset2mspct(two_suns.spct)

## Object: source_mspct [2 x 1]
## --- Member: a ---
## Object: source_spct [522 x 3]
## Wavelength range 280 to 800 nm, step 0.9230769 to 1 nm 
## Label: sunlight, simulated 
## Measured on 2010-06-22 09:51:00 UTC 
## Measured at 60.20911 N, 24.96474 E 
## Time unit 1s
## 
## # A tibble: 522 x 3
##   w.length s.e.irrad s.q.irrad
## *    <dbl>     <dbl>     <dbl>
## 1     280          0         0
## 2     281.         0         0
## 3     282.         0         0
## 4     283.         0         0
## # ... with 518 more rows
## --- Member: b ---
## Object: source_spct [522 x 3]
## Wavelength range 280 to 800 nm, step 0.9230769 to 1 nm 
## Label: sunlight, simulated 
## Measured on 2010-06-22 09:51:00 UTC 
## Measured at 60.20911 N, 24.96474 E 
## Time unit 1s
## 
## # A tibble: 522 x 3
##   w.length s.e.irrad s.q.irrad
## *    <dbl>     <dbl>     <dbl>
## 1     280          0         0
## 2     281.         0         0
## 3     282.         0         0
## 4     283.         0         0
## # ... with 518 more rows
## 
## --- END ---

If multiple spectra are stored in long form (as tidy data) in an ordinary data.frame or a tibble object with columns with suitable names, the same subset2mspct method can be used. In these case, additional arguments need to be passed indicating the target class for conversion. The name of the index variable encoding the grouping into multiple spectra will also need to be supplied as an argument. A call as in the example below, adds only default metadata to spectral objects.

test1.df <- data.frame(w.length = rep(200:210, 2),
                       s.e.irrad = rep(c(1, 2), c(11, 11)),
                       spectrum = factor(rep(c("A", "B"), c(11,11))))
subset2mspct(test1.df, member.class = "source_spct", idx.var = "spectrum")

## Object: source_mspct [2 x 1]
## --- Member: A ---
## Object: source_spct [11 x 2]
## Wavelength range 200 to 210 nm, step 1 nm 
## Time unit 1s
## 
## # A tibble: 11 x 2
##   w.length s.e.irrad
##      <int>     <dbl>
## 1      200         1
## 2      201         1
## 3      202         1
## 4      203         1
## # ... with 7 more rows
## --- Member: B ---
## Object: source_spct [11 x 2]
## Wavelength range 200 to 210 nm, step 1 nm 
## Time unit 1s
## 
## # A tibble: 11 x 2
##   w.length s.e.irrad
##      <int>     <dbl>
## 1      200         2
## 2      201         2
## 3      202         2
## 4      203         2
## # ... with 7 more rows
## 
## --- END ---

If all member spectra share the same metadata, and the constructor has a parameter allowing it to be set, it can be passed as a named argument.

subset2mspct(test1.df, member.class = "source_spct", idx.var = "spectrum",
             time.unit = "day")

## Object: source_mspct [2 x 1]
## --- Member: A ---
## Object: source_spct [11 x 2]
## Wavelength range 200 to 210 nm, step 1 nm 
## Time unit 86400s (~1 days)
## 
## # A tibble: 11 x 2
##   w.length s.e.irrad
##      <int>     <dbl>
## 1      200         1
## 2      201         1
## 3      202         1
## 4      203         1
## # ... with 7 more rows
## --- Member: B ---
## Object: source_spct [11 x 2]
## Wavelength range 200 to 210 nm, step 1 nm 
## Time unit 86400s (~1 days)
## 
## # A tibble: 11 x 2
##   w.length s.e.irrad
##      <int>     <dbl>
## 1      200         2
## 2      201         2
## 3      202         2
## 4      203         2
## # ... with 7 more rows
## 
## --- END ---
…
In a broad form (or untidy) data.frame the spectral values for different spectra are stored side-by-side as columns, and a single additional column used to store the shared wavelength values. To create a collection of spectral objects, with each member containing a single spectrum, we use function split2source_mspct and its equivalents for the remaining classes of spectral objects (class is determined by the function used, and columns which are not numeric are skipped). The column containing wavelength values in nanometres is recognized by means of its name. The names used for the spectra in the collection are derived from the names of the columns containing spectral values.

test2.df <- data.frame(w.length = 200:210, A = 1, B = 2, z = "A")
split2source_mspct(test2.df)

## Warning in split2mspct(x = x, member.class = "source_spct", spct.data.var =
## spct.data.var, : Skipping non-numeric column in x: z

## Object: source_mspct [2 x 1]
## --- Member: A ---
## Object: source_spct [11 x 2]
## Wavelength range 200 to 210 nm, step 1 nm 
## Time unit 1s
## 
## # A tibble: 11 x 2
##   w.length s.e.irrad
##      <int>     <dbl>
## 1      200         1
## 2      201         1
## 3      202         1
## 4      203         1
## # ... with 7 more rows
## --- Member: B ---
## Object: source_spct [11 x 2]
## Wavelength range 200 to 210 nm, step 1 nm 
## Time unit 1s
## 
## # A tibble: 11 x 2
##   w.length s.e.irrad
##      <int>     <dbl>
## 1      200         2
## 2      201         2
## 3      202         2
## 4      203         2
## # ... with 7 more rows
## 
## --- END ---

split2source_mspct(test2.df, spct.data.var = "s.q.irrad")

## Warning in split2mspct(x = x, member.class = "source_spct", spct.data.var =
## spct.data.var, : Skipping non-numeric column in x: z

## Object: source_mspct [2 x 1]
## --- Member: A ---
## Object: source_spct [11 x 2]
## Wavelength range 200 to 210 nm, step 1 nm 
## Time unit 1s
## 
## # A tibble: 11 x 2
##   w.length s.q.irrad
##      <int>     <dbl>
## 1      200         1
## 2      201         1
## 3      202         1
## 4      203         1
## # ... with 7 more rows
## --- Member: B ---
## Object: source_spct [11 x 2]
## Wavelength range 200 to 210 nm, step 1 nm 
## Time unit 1s
## 
## # A tibble: 11 x 2
##   w.length s.q.irrad
##      <int>     <dbl>
## 1      200         2
## 2      201         2
## 3      202         2
## 4      203         2
## # ... with 7 more rows
## 
## --- END ---

Also in this case, it is possible to pass additional named arguments to the constructor of spectral objects.

split2source_mspct(test2.df, spct.data.var = "s.q.irrad", time.unit = "day")

## Warning in split2mspct(x = x, member.class = "source_spct", spct.data.var =
## spct.data.var, : Skipping non-numeric column in x: z

## Object: source_mspct [2 x 1]
## --- Member: A ---
## Object: source_spct [11 x 2]
## Wavelength range 200 to 210 nm, step 1 nm 
## Time unit 86400s (~1 days)
## 
## # A tibble: 11 x 2
##   w.length s.q.irrad
##      <int>     <dbl>
## 1      200         1
## 2      201         1
## 3      202         1
## 4      203         1
## # ... with 7 more rows
## --- Member: B ---
## Object: source_spct [11 x 2]
## Wavelength range 200 to 210 nm, step 1 nm 
## Time unit 86400s (~1 days)
## 
## # A tibble: 11 x 2
##   w.length s.q.irrad
##      <int>     <dbl>
## 1      200         2
## 2      201         2
## 3      202         2
## 4      203         2
## # ... with 7 more rows
## 
## --- END ---
…
# not run as this triggers an error when building the vignette with 'devtools'
two_suns.mspct[1:2] <- two_suns.mspct[2:1]

Methods [[, $ and [[<-, extract and replace individual members of the collection, respectively. They always return or expect objects of one of the spectral classes.

two_suns.mspct[[1]]

## Object: source_spct [522 x 3]
## Wavelength range 280 to 800 nm, step 0.9230769 to 1 nm 
## Label: sunlight, simulated 
## Measured on 2010-06-22 09:51:00 UTC 
## Measured at 60.20911 N, 24.96474 E 
## Time unit 1s
## 
## # A tibble: 522 x 3
##   w.length s.e.irrad s.q.irrad
##      <dbl>     <dbl>     <dbl>
## 1     280          0         0
## 2     281.         0         0
## 3     282.         0         0
## 4     283.         0         0
## # ... with 518 more rows

two_suns.mspct$sun1

## Object: source_spct [522 x 3]
## Wavelength range 280 to 800 nm, step 0.9230769 to 1 nm 
## Label: sunlight, simulated 
## Measured on 2010-06-22 09:51:00 UTC 
## Measured at 60.20911 N, 24.96474 E 
## Time unit 1s
## 
## # A tibble: 522 x 3
##   w.length s.e.irrad s.q.irrad
##      <dbl>     <dbl>     <dbl>
## 1     280          0         0
## 2     281.         0         0
## 3     282.         0         0
## 4     283.         0         0
## # ... with 518 more rows

two_suns.mspct[["sun1"]]

## Object: source_spct [522 x 3]
## Wavelength range 280 to 800 nm, step 0.9230769 to 1 nm 
## Label: sunlight, simulated 
## Measured on 2010-06-22 09:51:00 UTC 
## Measured at 60.20911 N, 24.96474 E 
## Time unit 1s
## 
## # A tibble: 522 x 3
##   w.length s.e.irrad s.q.irrad
##      <dbl>     <dbl>     <dbl>
## 1     280          0         0
## 2     281.         0         0
## 3     282.         0         0
## 4     283.         0         0
## # ... with 518 more rows

two_suns.mspct[["sun1"]] <- sun.spct * 2
two_suns.mspct[["sun2"]] <- NULL
two_suns.mspct

## Object: source_mspct [1 x 1]
## --- Member: sun1 ---
## Object: source_spct [522 x 2]
## Wavelength range 280 to 800 nm, step 0.9230769 to 1 nm 
## Label: sunlight, simulated 
## Measured on 2010-06-22 09:51:00 UTC 
## Measured at 60.20911 N, 24.96474 E 
## Time unit 1s
## 
## # A tibble: 522 x 2
##   w.length s.e.irrad
##      <dbl>     <dbl>
## 1     280          0
## 2     281.         0
## 3     282.         0
## 4     283.         0
## # ... with 518 more rows
## 
## --- END ---

As with R’s list objects, can combine collections of spectra with method c() but we can not create new collections from individual spectra using this method.

c(two_suns.mspct, mixed.mspct)

## Object: generic_mspct [3 x 1]
## --- Member: sun1 ---
## Object: source_spct [522 x 2]
## Wavelength range 280 to 800 nm, step 0.9230769 to 1 nm 
## Label: sunlight, simulated 
## Measured on 2010-06-22 09:51:00 UTC 
## Measured at 60.20911 N, 24.96474 E 
## Time unit 1s
## 
## # A tibble: 522 x 2
##   w.length s.e.irrad
##      <dbl>     <dbl>
## 1     280          0
## 2     281.         0
## 3     282.         0
## 4     283.         0
## # ... with 518 more rows
## --- Member: filter ---
## Object: filter_spct [4 x 2]
## Wavelength range 100 to 5000 nm, step 1 to 4898 nm 
## Label: theoretical fully transparent object 
## 
…
##   w.length   Tfr
##      <dbl> <dbl>
## 1      100     1
## 2      101     1
## 3     4999     1
## 4     5000     1
## --- Member: source ---
## Object: source_spct [522 x 3]
## Wavelength range 280 to 800 nm, step 0.9230769 to 1 nm 
## Label: sunlight, simulated 
## Measured on 2010-06-22 09:51:00 UTC 
## Measured at 60.20911 N, 24.96474 E 
## Time unit 1s
## 
## # A tibble: 522 x 3
##   w.length s.e.irrad s.q.irrad
##      <dbl>     <dbl>     <dbl>
## 1     280          0         0
## 2     281.         0         0
## 3     282.         0         0
## 4     283.         0         0
## # ... with 518 more rows
## 
## --- END ---
…
We start with a simple example in which we add a constant to each spectrum in the collection

two.mspct <- source_mspct(list(A = sun.spct * 1, B = sun.spct * 2))
msmsply(two.mspct, `+`, 0.1)

## Object: source_mspct [2 x 1]
## --- Member: A ---
## Object: source_spct [522 x 2]
## Wavelength range 280 to 800 nm, step 0.9230769 to 1 nm 
## Label: sunlight, simulated 
## Measured on 2010-06-22 09:51:00 UTC 
## Measured at 60.20911 N, 24.96474 E 
## Time unit 1s
## 
## # A tibble: 522 x 2
##   w.length s.e.irrad
##      <dbl>     <dbl>
## 1     280        0.1
## 2     281.       0.1
## 3     282.       0.1
## 4     283.       0.1
## # ... with 518 more rows
## --- Member: B ---
## Object: source_spct [522 x 2]
## Wavelength range 280 to 800 nm, step 0.9230769 to 1 nm 
## Label: sunlight, simulated 
## Measured on 2010-06-22 09:51:00 UTC 
## Measured at 60.20911 N, 24.96474 E 
## Time unit 1s
## 
## # A tibble: 522 x 2
##   w.length s.e.irrad
##      <dbl>     <dbl>
## 1     280        0.1
## 2     281.       0.1
## 3     282.       0.1
## 4     283.       0.1
## # ... with 518 more rows
## 
## --- END ---
…
