photobiology 0.9.12.9003 User Guide: 2 Radiation
…
## [1] "source_spct"  "generic_spct" "tbl_df"       "tbl"         
## [5] "data.frame"

class(my.df)

## [1] "data.frame"

my.spct

## Object: source_spct [11 x 2]
## Wavelength range 400 to 410 nm, step 1 nm 
## Time unit 1s
## 
## # A tibble: 11 × 2
##   w.length s.e.irrad
##      <int>     <dbl>
## 1      400         1
## 2      401         1
## 3      402         1
## 4      403         1
## # ... with 7 more rows
…
getWhereMeasured(my.spct)$lon

## [1] -10

my.spct

## Object: source_spct [522 x 3]
## Wavelength range 280 to 800 nm, step 0.9230769 to 1 nm 
## Measured on 2015-10-31 20:55:00 UTC
## Measured at 60 N, -10 E
## Time unit 1s
## 
## # A tibble: 522 × 3
##   w.length s.e.irrad s.q.irrad
##      <dbl>     <dbl>     <dbl>
## 1 280.0000         0         0
## 2 280.9231         0         0
## 3 281.8462         0         0
## 4 282.7692         0         0
## # ... with 518 more rows
…
setWhatMeasured(my.spct, "something")
getWhatMeasured(my.spct)

## [1] "something"

my.spct

## Object: source_spct [522 x 3]
## Wavelength range 280 to 800 nm, step 0.9230769 to 1 nm 
## Label: something
## Measured on 2015-10-31 20:55:00 UTC
## Measured at 60 N, -10 E
## Time unit 1s
## 
## # A tibble: 522 × 3
##   w.length s.e.irrad s.q.irrad
##      <dbl>     <dbl>     <dbl>
## 1 280.0000         0         0
## 2 280.9231         0         0
## 3 281.8462         0         0
## 4 282.7692         0         0
## # ... with 518 more rows
…
## [1] FALSE

Sometimes it may be desired to change the time unit used for expressing spectral irradiance or spectral response, and this can be achieved with the conversion function convertTimeUnit. This function both converts spectral data to the new unit of expression and sets the time.unit attribute, preserving the validity of the data object.

ten.minutes.spct <-
  convertTimeUnit(sun.spct, time.unit = duration(10, "minutes"))
ten.minutes.spct

## Object: source_spct [522 x 3]
## Wavelength range 280 to 800 nm, step 0.9230769 to 1 nm 
## Measured on 2010-06-22 09:51:00 UTC
## Measured at 60.20942 N, 24.96424 E
## Time unit 600s (~10 minutes)
## 
## # A tibble: 522 × 3
##   w.length s.e.irrad s.q.irrad
##      <dbl>     <dbl>     <dbl>
## 1 280.0000         0         0
## 2 280.9231         0         0
## 3 281.8462         0         0
## 4 282.7692         0         0
## # ... with 518 more rows
…
We can construct a collection using a list of spectral objects as a starting point, in this case the spectral transmittance for two glass filters.

two_suns.mspct <- source_mspct(list(sun1 = sun.spct, sun2 = sun.spct))
two_suns.mspct

## Object: source_mspct [2 x 1]
## --- Member: sun1 ---
## Object: source_spct [522 x 3]
## Wavelength range 280 to 800 nm, step 0.9230769 to 1 nm 
## Measured on 2010-06-22 09:51:00 UTC
## Measured at 60.20942 N, 24.96424 E
## Time unit 1s
## 
## # A tibble: 522 × 3
##   w.length s.e.irrad s.q.irrad
##      <dbl>     <dbl>     <dbl>
## 1 280.0000         0         0
## 2 280.9231         0         0
## 3 281.8462         0         0
## 4 282.7692         0         0
## # ... with 518 more rows
## --- Member: sun2 ---
## Object: source_spct [522 x 3]
## Wavelength range 280 to 800 nm, step 0.9230769 to 1 nm 
## Measured on 2010-06-22 09:51:00 UTC
## Measured at 60.20942 N, 24.96424 E
## Time unit 1s
## 
## # A tibble: 522 × 3
##   w.length s.e.irrad s.q.irrad
##      <dbl>     <dbl>     <dbl>
## 1 280.0000         0         0
## 2 280.9231         0         0
## 3 281.8462         0         0
## 4 282.7692         0         0
## # ... with 518 more rows
## 
## --- END ---
…
Converting tidy data

Spectral objects containing multiple spectra identified by a factor (class of the argument is replicated to collection members).

two_suns.spct <- rbindspct(list(a = sun.spct, b = sun.spct / 2))
subset2mspct(two_suns.spct)

## Object: source_mspct [2 x 1]
## --- Member: a ---
## Object: source_spct [522 x 3]
## Wavelength range 280 to 800 nm, step 0.9230769 to 1 nm 
## Time unit 1s
## 
## # A tibble: 522 × 3
##   w.length s.e.irrad s.q.irrad
## *    <dbl>     <dbl>     <dbl>
## 1 280.0000         0         0
## 2 280.9231         0         0
## 3 281.8462         0         0
## 4 282.7692         0         0
## # ... with 518 more rows
## --- Member: b ---
## Object: source_spct [522 x 3]
## Wavelength range 280 to 800 nm, step 0.9230769 to 1 nm 
## Time unit 1s
## 
## # A tibble: 522 × 3
##   w.length s.e.irrad s.q.irrad
## *    <dbl>     <dbl>     <dbl>
## 1 280.0000         0         0
## 2 280.9231         0         0
## 3 281.8462         0         0
## 4 282.7692         0         0
## # ... with 518 more rows
## 
## --- END ---

Data frame containing tidy spectral data (target class and index variable need to be supplied as arguments).

test1.df <- data.frame(w.length = rep(200:210, 2),
                       s.e.irrad = rep(c(1, 2), c(11, 11)),
                       spectrum = factor(rep(c("A", "B"), c(11,11))))
subset2mspct(test1.df, member.class = "source_spct", idx.var = "spectrum")

## Object: source_mspct [2 x 1]
## --- Member: A ---
## Object: source_spct [11 x 2]
## Wavelength range 200 to 210 nm, step 1 nm 
## Time unit 1s
## 
## # A tibble: 11 × 2
##   w.length s.e.irrad
## *    <int>     <dbl>
## 1      200         1
## 2      201         1
## 3      202         1
## 4      203         1
## # ... with 7 more rows
## --- Member: B ---
## Object: source_spct [11 x 2]
## Wavelength range 200 to 210 nm, step 1 nm 
## Time unit 1s
## 
## # A tibble: 11 × 2
##   w.length s.e.irrad
## *    <int>     <dbl>
## 1      200         2
## 2      201         2
## 3      202         2
## 4      203         2
## # ... with 7 more rows
## 
## --- END ---

To convert a tidy data frame into a long form spectral object we need to pass the number of spectra through parameter multiple.wl to override the usual check for unique wavelength values.

setSourceSpct(test1.df, multiple.wl = 2L)
test1.df

## Object: source_spct [22 x 3]
## containing 2 spectra in long form
## Wavelength range 200 to 210 nm, step 1 nm 
## Time unit 1s
## 
## # A tibble: 22 × 3
##   w.length s.e.irrad spectrum
##      <int>     <dbl>   <fctr>
## 1      200         1        A
## 2      201         1        A
## 3      202         1        A
## 4      203         1        A
## # ... with 18 more rows

Converting untidy data frames

Data frame containing untidy or wide spectral data (class is determined by the function used, columns which are not numeric are skipped.

test2.df <- data.frame(w.length = 200:210, A = 1, B = 2, z = "A")
split2source_mspct(test2.df)

## Object: source_mspct [2 x 1]
## --- Member: A ---
## Object: source_spct [11 x 2]
## Wavelength range 200 to 210 nm, step 1 nm 
## Time unit 1s
## 
## # A tibble: 11 × 2
##   w.length s.e.irrad
##      <int>     <dbl>
## 1      200         1
## 2      201         1
## 3      202         1
## 4      203         1
## # ... with 7 more rows
## --- Member: B ---
## Object: source_spct [11 x 2]
## Wavelength range 200 to 210 nm, step 1 nm 
## Time unit 1s
## 
## # A tibble: 11 × 2
##   w.length s.e.irrad
##      <int>     <dbl>
## 1      200         2
## 2      201         2
## 3      202         2
## 4      203         2
## # ... with 7 more rows
## 
## --- END ---

split2source_mspct(test2.df, spct.data.var = "s.q.irrad")

## Object: source_mspct [2 x 1]
## --- Member: A ---
## Object: source_spct [11 x 2]
## Wavelength range 200 to 210 nm, step 1 nm 
## Time unit 1s
## 
## # A tibble: 11 × 2
##   w.length s.q.irrad
##      <int>     <dbl>
## 1      200         1
## 2      201         1
## 3      202         1
## 4      203         1
## # ... with 7 more rows
## --- Member: B ---
## Object: source_spct [11 x 2]
## Wavelength range 200 to 210 nm, step 1 nm 
## Time unit 1s
## 
## # A tibble: 11 × 2
##   w.length s.q.irrad
##      <int>     <dbl>
## 1      200         2
## 2      201         2
## 3      202         2
## 4      203         2
## # ... with 7 more rows
## 
## --- END ---
…
# not run as this triggers an error when building the vignette with 'devtools'
two_suns.mspct[1:2] <- two_suns.mspct[2:1]

Methods [[, $ and [[<-, extract and replace individual members of the collection, respectively. They always return or expect objects of one of the spectral classes.

two_suns.mspct[[1]]

## Object: source_spct [522 x 3]
## Wavelength range 280 to 800 nm, step 0.9230769 to 1 nm 
## Measured on 2010-06-22 09:51:00 UTC
## Measured at 60.20942 N, 24.96424 E
## Time unit 1s
## 
## # A tibble: 522 × 3
##   w.length s.e.irrad s.q.irrad
##      <dbl>     <dbl>     <dbl>
## 1 280.0000         0         0
## 2 280.9231         0         0
## 3 281.8462         0         0
## 4 282.7692         0         0
## # ... with 518 more rows

two_suns.mspct$sun1

## Object: source_spct [522 x 3]
## Wavelength range 280 to 800 nm, step 0.9230769 to 1 nm 
## Measured on 2010-06-22 09:51:00 UTC
## Measured at 60.20942 N, 24.96424 E
## Time unit 1s
## 
## # A tibble: 522 × 3
##   w.length s.e.irrad s.q.irrad
##      <dbl>     <dbl>     <dbl>
## 1 280.0000         0         0
## 2 280.9231         0         0
## 3 281.8462         0         0
## 4 282.7692         0         0
## # ... with 518 more rows

two_suns.mspct[["sun1"]]

## Object: source_spct [522 x 3]
## Wavelength range 280 to 800 nm, step 0.9230769 to 1 nm 
## Measured on 2010-06-22 09:51:00 UTC
## Measured at 60.20942 N, 24.96424 E
## Time unit 1s
## 
## # A tibble: 522 × 3
##   w.length s.e.irrad s.q.irrad
##      <dbl>     <dbl>     <dbl>
## 1 280.0000         0         0
## 2 280.9231         0         0
## 3 281.8462         0         0
## 4 282.7692         0         0
## # ... with 518 more rows

two_suns.mspct[["sun1"]] <- sun.spct * 2
two_suns.mspct[["sun2"]] <- NULL
two_suns.mspct

## Object: source_mspct [2 x 1]
## --- Member: sun1 ---
## Object: source_spct [522 x 2]
## Wavelength range 280 to 800 nm, step 0.9230769 to 1 nm 
## Measured on 2010-06-22 09:51:00 UTC
## Measured at 60.20942 N, 24.96424 E
## Time unit 1s
## 
## # A tibble: 522 × 2
##   w.length s.e.irrad
##      <dbl>     <dbl>
## 1 280.0000         0
## 2 280.9231         0
## 3 281.8462         0
## 4 282.7692         0
## # ... with 518 more rows
## 
## --- END ---

We can use the combine method c() with collections of spectra (but not to create new collections from individual spectra).

c(two_suns.mspct, mixed.mspct)

## Object: generic_mspct [3 x 1]
## --- Member: sun1 ---
## Object: source_spct [522 x 2]
## Wavelength range 280 to 800 nm, step 0.9230769 to 1 nm 
## Measured on 2010-06-22 09:51:00 UTC
## Measured at 60.20942 N, 24.96424 E
## Time unit 1s
## 
## # A tibble: 522 × 2
##   w.length s.e.irrad
##      <dbl>     <dbl>
## 1 280.0000         0
## 2 280.9231         0
## 3 281.8462         0
## 4 282.7692         0
## # ... with 518 more rows
## --- Member: filter ---
## Object: filter_spct [4 x 2]
## Wavelength range 100 to 5000 nm, step 1 to 4898 nm 
## 
## # A tibble: 4 × 2
##   w.length   Tfr
## *    <dbl> <dbl>
## 1      100     1
## 2      101     1
## 3     4999     1
## 4     5000     1
## --- Member: source ---
## Object: source_spct [522 x 3]
## Wavelength range 280 to 800 nm, step 0.9230769 to 1 nm 
## Measured on 2010-06-22 09:51:00 UTC
## Measured at 60.20942 N, 24.96424 E
## Time unit 1s
## 
## # A tibble: 522 × 3
##   w.length s.e.irrad s.q.irrad
##      <dbl>     <dbl>     <dbl>
## 1 280.0000         0         0
## 2 280.9231         0         0
## 3 281.8462         0         0
## 4 282.7692         0         0
## # ... with 518 more rows
## 
## --- END ---
…
We start with a simple example in which we add a constant to each spectrum in the collection

two.mspct <- source_mspct(list(A = sun.spct * 1, B = sun.spct * 2))
msmsply(two.mspct, `+`, 0.1)

## Object: source_mspct [2 x 1]
## --- Member: A ---
## Object: source_spct [522 x 2]
## Wavelength range 280 to 800 nm, step 0.9230769 to 1 nm 
## Measured on 2010-06-22 09:51:00 UTC
## Measured at 60.20942 N, 24.96424 E
## Time unit 1s
## 
## # A tibble: 522 × 2
##   w.length s.e.irrad
##      <dbl>     <dbl>
## 1 280.0000       0.1
## 2 280.9231       0.1
## 3 281.8462       0.1
## 4 282.7692       0.1
## # ... with 518 more rows
## --- Member: B ---
## Object: source_spct [522 x 2]
## Wavelength range 280 to 800 nm, step 0.9230769 to 1 nm 
## Measured on 2010-06-22 09:51:00 UTC
## Measured at 60.20942 N, 24.96424 E
## Time unit 1s
## 
## # A tibble: 522 × 2
##   w.length s.e.irrad
##      <dbl>     <dbl>
## 1 280.0000       0.1
## 2 280.9231       0.1
## 3 281.8462       0.1
## 4 282.7692       0.1
## # ... with 518 more rows
## 
## --- END ---

and continue with a more complex example in which we trim each spectrum

msmsply(two.mspct, trim_wl, range = c(281, 500), fill = NA)

## Object: source_mspct [2 x 1]
## --- Member: A ---
## Object: source_spct [525 x 2]
## Wavelength range 280 to 800 nm, step 1.023182e-12 to 1 nm 
## Measured on 2010-06-22 09:51:00 UTC
## Measured at 60.20942 N, 24.96424 E
## Time unit 1s
## 
## # A tibble: 525 × 2
##   w.length s.e.irrad
##      <dbl>     <dbl>
## 1 280.0000        NA
## 2 280.9231        NA
## 3 281.0000        NA
## 4 281.0000         0
## # ... with 521 more rows
## --- Member: B ---
## Object: source_spct [525 x 2]
## Wavelength range 280 to 800 nm, step 1.023182e-12 to 1 nm 
## Measured on 2010-06-22 09:51:00 UTC
## Measured at 60.20942 N, 24.96424 E
## Time unit 1s
## 
## # A tibble: 525 × 2
##   w.length s.e.irrad
##      <dbl>     <dbl>
## 1 280.0000        NA
## 2 280.9231        NA
## 3 281.0000        NA
## 4 281.0000         0
## # ... with 521 more rows
## 
## --- END ---
…
Convolution

By convolution we normally mean the multiplication value by value at matching wavelengths of two spectra. The function described in this section facilitates this and similar operations among collections of spectra. An example use case could be the convolution of spectral irradiance by spectral transmittance for all combinations of light sources and filters in a collection of source spectra and a collection of filter spectra.

Default operator (or function) is that for multiplication, either one or both of the two first arguments must be a collection of spectra. When only one argument is a collection of spectra, the other one can be a spectrum, or even a numeric vector. For multiplication the order of the operands does not affect the returned value. With operators or functions for non-transitive operations the order does matter.

convolve_each(two.mspct, sun.spct)

## Object: source_mspct [2 x 1]
## --- Member: A ---
## Object: source_spct [522 x 2]
## Wavelength range 280 to 800 nm, step 0.9230769 to 1 nm 
## Time unit 1s
## 
## # A tibble: 522 × 2
##   w.length s.e.irrad
##      <dbl>     <dbl>
## 1 280.0000         0
## 2 280.9231         0
## 3 281.8462         0
## 4 282.7692         0
## # ... with 518 more rows
## --- Member: B ---
## Object: source_spct [522 x 2]
## Wavelength range 280 to 800 nm, step 0.9230769 to 1 nm 
## Time unit 1s
## 
## # A tibble: 522 × 2
##   w.length s.e.irrad
##      <dbl>     <dbl>
## 1 280.0000         0
## 2 280.9231         0
## 3 281.8462         0
## 4 282.7692         0
## # ... with 518 more rows
## 
## --- END ---

convolve_each(sun.spct, two.mspct)

## Object: source_mspct [2 x 1]
## --- Member: A ---
## Object: source_spct [522 x 2]
## Wavelength range 280 to 800 nm, step 0.9230769 to 1 nm 
## Time unit 1s
## 
## # A tibble: 522 × 2
##   w.length s.e.irrad
##      <dbl>     <dbl>
## 1 280.0000         0
## 2 280.9231         0
## 3 281.8462         0
## 4 282.7692         0
## # ... with 518 more rows
## --- Member: B ---
## Object: source_spct [522 x 2]
## Wavelength range 280 to 800 nm, step 0.9230769 to 1 nm 
## Time unit 1s
## 
## # A tibble: 522 × 2
##   w.length s.e.irrad
##      <dbl>     <dbl>
## 1 280.0000         0
## 2 280.9231         0
## 3 281.8462         0
## 4 282.7692         0
## # ... with 518 more rows
## 
## --- END ---

another_two.mspct <- two.mspct
names(another_two.mspct) <- c("a", "b")
convolve_each(another_two.mspct, two.mspct)

## Object: source_mspct [2 x 2]
## --- Member: a_A ---
## Object: source_spct [522 x 2]
## Wavelength range 280 to 800 nm, step 0.9230769 to 1 nm 
## Time unit 1s
## 
## # A tibble: 522 × 2
##   w.length s.e.irrad
##      <dbl>     <dbl>
## 1 280.0000         0
## 2 280.9231         0
## 3 281.8462         0
## 4 282.7692         0
## # ... with 518 more rows
## --- Member: a_B ---
## Object: source_spct [522 x 2]
## Wavelength range 280 to 800 nm, step 0.9230769 to 1 nm 
## Time unit 1s
## 
## # A tibble: 522 × 2
##   w.length s.e.irrad
##      <dbl>     <dbl>
## 1 280.0000         0
## 2 280.9231         0
## 3 281.8462         0
## 4 282.7692         0
## # ... with 518 more rows
## --- Member: b_A ---
## Object: source_spct [522 x 2]
## Wavelength range 280 to 800 nm, step 0.9230769 to 1 nm 
## Time unit 1s
## 
## # A tibble: 522 × 2
##   w.length s.e.irrad
##      <dbl>     <dbl>
## 1 280.0000         0
## 2 280.9231         0
## 3 281.8462         0
## 4 282.7692         0
## # ... with 518 more rows
## --- Member: b_B ---
## Object: source_spct [522 x 2]
## Wavelength range 280 to 800 nm, step 0.9230769 to 1 nm 
## Time unit 1s
## 
## # A tibble: 522 × 2
##   w.length s.e.irrad
##      <dbl>     <dbl>
## 1 280.0000         0
## 2 280.9231         0
## 3 281.8462         0
## 4 282.7692         0
## # ... with 518 more rows
## 
## --- END ---

The function convolve_each will use other operators or functions and even pass additional named arguments when these are supplied as arguments.

convolve_each(two.mspct, sun.spct, oper = `+`)

## Object: source_mspct [2 x 1]
## --- Member: A ---
## Object: source_spct [522 x 2]
## Wavelength range 280 to 800 nm, step 0.9230769 to 1 nm 
## Time unit 1s
## 
## # A tibble: 522 × 2
##   w.length s.e.irrad
##      <dbl>     <dbl>
## 1 280.0000         0
## 2 280.9231         0
## 3 281.8462         0
## 4 282.7692         0
## # ... with 518 more rows
## --- Member: B ---
## Object: source_spct [522 x 2]
## Wavelength range 280 to 800 nm, step 0.9230769 to 1 nm 
## Time unit 1s
## 
## # A tibble: 522 × 2
##   w.length s.e.irrad
##      <dbl>     <dbl>
## 1 280.0000         0
## 2 280.9231         0
## 3 281.8462         0
## 4 282.7692         0
## # ... with 518 more rows
## 
## --- END ---
…
two.mspct

## Object: source_mspct [2 x 1]
## --- Member: A ---
## Object: source_spct [522 x 2]
## Wavelength range 280 to 800 nm, step 0.9230769 to 1 nm 
## Measured on 2015-10-31 08:00:00 UTC
## Measured at 60.20942 N, 24.96424 E
## Time unit 1s
## 
## # A tibble: 522 × 2
##   w.length s.e.irrad
##      <dbl>     <dbl>
## 1 280.0000         0
## 2 280.9231         0
## 3 281.8462         0
## 4 282.7692         0
## # ... with 518 more rows
## --- Member: B ---
## Object: source_spct [522 x 2]
## Wavelength range 280 to 800 nm, step 0.9230769 to 1 nm 
## Measured on 2015-10-31 09:00:00 UTC
## Measured at 60.20942 N, 24.96424 E
## Time unit 1s
## 
## # A tibble: 522 × 2
##   w.length s.e.irrad
##      <dbl>     <dbl>
## 1 280.0000         0
## 2 280.9231         0
## 3 281.8462         0
## 4 282.7692         0
## # ... with 518 more rows
## 
## --- END ---
…
sun.spct * sun.spct

## Object: source_spct [522 x 2]
## Wavelength range 280 to 800 nm, step 0.9230769 to 1 nm 
## Time unit 1s
## 
## # A tibble: 522 × 2
##   w.length s.e.irrad
##      <dbl>     <dbl>
## 1 280.0000         0
## 2 280.9231         0
## 3 281.8462         0
## 4 282.7692         0
## # ... with 518 more rows
…
