User Guide: 1 Radiation
…
## [1] "source_spct"  "generic_spct" "tbl_df"       "tbl"          "data.frame"

class(my.df)

## [1] "data.frame"

my.spct

## Object: source_spct [11 x 2]
## Wavelength range 400-410 nm, step 1 nm 
## Variables:
##  w.length: Wavelength [nm]
##  s.e.irrad: Spectral energy irradiance [W m-2 nm-1] 
## --
## # A tibble: 11 × 2
##   w.length s.e.irrad
##      <int>     <dbl>
## 1      400         1
## 2      401         1
## 3      402         1
## 4      403         1
## # ℹ 7 more rows
…
my.spct

## Object: source_spct [522 x 3]
## Wavelength range 280-800 nm, step 0.9230769-1 nm 
## Label: sunlight, simulated 
## Measured on 2015-10-31 20:55:00 UTC 
## Measured at 60 N, -10 E; Somewhere 
## Variables:
##  w.length: Wavelength [nm]
##  s.e.irrad: Spectral energy irradiance [W m-2 nm-1]
##  s.q.irrad: Spectral photon irradiance [mol s-1 m-2 nm-1] 
## --
## # A tibble: 522 × 3
##   w.length s.e.irrad s.q.irrad
##      <dbl>     <dbl>     <dbl>
## 1     280          0         0
## 2     281.         0         0
## 3     282.         0         0
## 4     283.         0         0
## # ℹ 518 more rows
…
## [1] "something"

my.spct

## Object: source_spct [522 x 3]
## Wavelength range 280-800 nm, step 0.9230769-1 nm 
## Label: something 
## Measured on 2015-10-31 20:55:00 UTC 
## Measured at 60 N, -10 E; Somewhere 
## Variables:
##  w.length: Wavelength [nm]
##  s.e.irrad: Spectral energy irradiance [W m-2 nm-1]
##  s.q.irrad: Spectral photon irradiance [mol s-1 m-2 nm-1] 
## --
## # A tibble: 522 × 3
##   w.length s.e.irrad s.q.irrad
##      <dbl>     <dbl>     <dbl>
## 1     280          0         0
## 2     281.         0         0
## 3     282.         0         0
## 4     283.         0         0
## # ℹ 518 more rows
…
sun.spct

## Object: source_spct [522 x 3]
## Wavelength range 280-800 nm, step 0.9230769-1 nm 
## Label: sunlight, simulated 
## Measured on 2010-06-22 09:51:00 UTC 
## Measured at 60.20911 N, 24.96474 E; Kumpula, Helsinki, FI 
## Variables:
##  w.length: Wavelength [nm]
##  s.e.irrad: Spectral energy irradiance [W m-2 nm-1]
##  s.q.irrad: Spectral photon irradiance [mol s-1 m-2 nm-1] 
## --
## # A tibble: 522 × 3
##   w.length s.e.irrad s.q.irrad
##      <dbl>     <dbl>     <dbl>
## 1     280          0         0
## 2     281.         0         0
## 3     282.         0         0
## 4     283.         0         0
## # ℹ 518 more rows
…
ten.minutes.spct <-
  convertTimeUnit(sun.spct, time.unit = duration(10, "minutes"))
ten.minutes.spct

## Object: source_spct [522 x 3]
## Wavelength range 280-800 nm, step 0.9230769-1 nm 
## Label: sunlight, simulated 
## Measured on 2010-06-22 09:51:00 UTC 
## Measured at 60.20911 N, 24.96474 E; Kumpula, Helsinki, FI 
## Variables:
##  w.length: Wavelength [nm]
##  s.e.irrad: Spectral energy exposure [J m-2 nm-1]
##  s.q.irrad: Spectral photon exposure [mol m-2 nm-1] 
## --
## # A tibble: 522 × 3
##   w.length s.e.irrad s.q.irrad
##      <dbl>     <dbl>     <dbl>
## 1     280          0         0
## 2     281.         0         0
## 3     282.         0         0
## 4     283.         0         0
## # ℹ 518 more rows
…
They are included in the printout of filter.spct
objects.

polyester.spct

## Object: filter_spct [561 x 2]
## Wavelength range 240-800 nm, step 1 nm 
## Label: Polyester, clear film, 0.000125 m thick, Autostat CT5 from McDermit Autotype; new 
## Rfr (/1): 0.074, thickness (mm): 0.125, attenuation mode: absorption.
## Variables:
##  w.length: Wavelength [nm]
##  Tfr: Total spectral transmittance [/1] 
## --
## # A tibble: 561 × 2
##   w.length     Tfr
##      <int>   <dbl>
## 1      240 0.00482
## 2      241 0.00464
## 3      242 0.00446
## 4      243 0.00429
## # ℹ 557 more rows

We estimate the spectral transmittance of 2 mm-thick PET film.

convertThickness(polyester.spct, thickness = 2e-3)

## Object: filter_spct [561 x 2]
## Wavelength range 240-800 nm, step 1 nm 
## Label: Polyester, clear film, 0.000125 m thick, Autostat CT5 from McDermit Autotype; new 
## Rfr (/1): 0.074, thickness (mm): 2.00, attenuation mode: absorption.
## Variables:
##  w.length: Wavelength [nm]
##  Tfr: Total spectral transmittance [/1] 
## --
## # A tibble: 561 × 2
##   w.length      Tfr
##      <int>    <dbl>
## 1      240 2.70e-37
## 2      241 1.48e-37
## 3      242 7.89e-38
## 4      243 4.10e-38
## # ℹ 557 more rows
…
## Object: source_mspct [2 x 1]
## --- Member: sun1 ---
## Object: source_spct [522 x 3]
## Wavelength range 280-800 nm, step 0.9230769-1 nm 
## Label: sunlight, simulated 
## Measured on 2010-06-22 09:51:00 UTC 
## Measured at 60.20911 N, 24.96474 E; Kumpula, Helsinki, FI 
## Variables:
##  w.length: Wavelength [nm]
##  s.e.irrad: Spectral energy irradiance [W m-2 nm-1]
##  s.q.irrad: Spectral photon irradiance [mol s-1 m-2 nm-1] 
## --
## # A tibble: 522 × 3
##   w.length s.e.irrad s.q.irrad
##      <dbl>     <dbl>     <dbl>
## 1     280          0         0
## 2     281.         0         0
## 3     282.         0         0
## 4     283.         0         0
## # ℹ 518 more rows
## --- Member: sun2 ---
## Object: source_spct [522 x 3]
## Wavelength range 280-800 nm, step 0.9230769-1 nm 
## Label: sunlight, simulated 
## Measured on 2010-06-22 09:51:00 UTC 
## Measured at 60.20911 N, 24.96474 E; Kumpula, Helsinki, FI 
## Variables:
##  w.length: Wavelength [nm]
##  s.e.irrad: Spectral energy irradiance [W m-2 nm-1]
##  s.q.irrad: Spectral photon irradiance [mol s-1 m-2 nm-1] 
## --
## # A tibble: 522 × 3
##   w.length s.e.irrad s.q.irrad
##      <dbl>     <dbl>     <dbl>
## 1     280          0         0
## 2     281.         0         0
## 3     282.         0         0
## 4     283.         0         0
## # ℹ 518 more rows
## 
## --- END ---
…
x <- matrix(1:100, ncol = 2)
wl <- 501:550 # wavelengths in nanometres
as.filter_mspct(x, wl, "Tpc")

## Object: filter_mspct [0 x 3]
## --- Member: spct_1 ---
## Object: filter_spct [50 x 2]
## Wavelength range 501-550 nm, step 1 nm 
## Rfr (/1): NA, thickness (mm): NA, attenuation mode: NA.
## Variables:
##  w.length: Wavelength [nm]
##  Tfr: Total spectral transmittance [/1] 
## --
## # A tibble: 50 × 2
##   w.length   Tfr
##      <int> <dbl>
## 1      501  0.01
## 2      502  0.02
## 3      503  0.03
## 4      504  0.04
## # ℹ 46 more rows
## --- Member: spct_2 ---
## Object: filter_spct [50 x 2]
## Wavelength range 501-550 nm, step 1 nm 
## Rfr (/1): NA, thickness (mm): NA, attenuation mode: NA.
## Variables:
##  w.length: Wavelength [nm]
##  Tfr: Total spectral transmittance [/1] 
## --
## # A tibble: 50 × 2
##   w.length   Tfr
##      <int> <dbl>
## 1      501  0.51
## 2      502  0.52
## 3      503  0.53
## 4      504  0.54
## # ℹ 46 more rows
## 
## --- END ---

In a second example we supply explicit names for the spectra.

as.filter_mspct(x, wl, "Tpc", spct.names = c("A", "B"))

## Object: filter_mspct [0 x 3]
## --- Member: A ---
## Object: filter_spct [50 x 2]
## Wavelength range 501-550 nm, step 1 nm 
## Rfr (/1): NA, thickness (mm): NA, attenuation mode: NA.
## Variables:
##  w.length: Wavelength [nm]
##  Tfr: Total spectral transmittance [/1] 
## --
## # A tibble: 50 × 2
##   w.length   Tfr
##      <int> <dbl>
## 1      501  0.01
## 2      502  0.02
## 3      503  0.03
## 4      504  0.04
## # ℹ 46 more rows
## --- Member: B ---
## Object: filter_spct [50 x 2]
## Wavelength range 501-550 nm, step 1 nm 
## Rfr (/1): NA, thickness (mm): NA, attenuation mode: NA.
## Variables:
##  w.length: Wavelength [nm]
##  Tfr: Total spectral transmittance [/1] 
## --
## # A tibble: 50 × 2
##   w.length   Tfr
##      <int> <dbl>
## 1      501  0.51
## 2      502  0.52
## 3      503  0.53
## 4      504  0.54
## # ℹ 46 more rows
## 
## --- END ---
…
xrow <- matrix(1:100, nrow = 2, byrow = TRUE)
as.filter_mspct(xrow, wl, "Tpc")

## Object: filter_mspct [0 x 3]
## --- Member: spct_1 ---
## Object: filter_spct [50 x 2]
## Wavelength range 501-550 nm, step 1 nm 
## Rfr (/1): NA, thickness (mm): NA, attenuation mode: NA.
## Variables:
##  w.length: Wavelength [nm]
##  Tfr: Total spectral transmittance [/1] 
## --
## # A tibble: 50 × 2
##   w.length   Tfr
##      <int> <dbl>
## 1      501  0.01
## 2      502  0.02
## 3      503  0.03
## 4      504  0.04
## # ℹ 46 more rows
## --- Member: spct_2 ---
## Object: filter_spct [50 x 2]
## Wavelength range 501-550 nm, step 1 nm 
## Rfr (/1): NA, thickness (mm): NA, attenuation mode: NA.
## Variables:
##  w.length: Wavelength [nm]
##  Tfr: Total spectral transmittance [/1] 
## --
## # A tibble: 50 × 2
##   w.length   Tfr
##      <int> <dbl>
## 1      501  0.51
## 2      502  0.52
## 3      503  0.53
## 4      504  0.54
## # ℹ 46 more rows
## 
## --- END ---
…
sun_evening_12.spct <- rbindspct(sun_evening.mspct[1:2])
sun_evening_12.spct

## Object: source_spct [3,186 x 3]
## containing 2 spectra in long form
## Wavelength range 290-1000 nm, step 0.34-0.47 nm 
## Label: cosine.hour.9 
## time.01 measured on 2023-06-12 18:38:00.379657 UTC
## time.02 measured on 2023-06-12 18:39:00.797266 UTC 
## Measured at 60.227 N, 24.018 E; Viikki, Helsinki, FI 
## Variables:
##  w.length: Wavelength [nm]
##  s.e.irrad: Spectral energy irradiance [W m-2 nm-1] 
## --
## # A tibble: 3,186 × 3
##   w.length s.e.irrad spct.idx
##      <dbl>     <dbl> <fct>   
## 1     290          0 time.01 
## 2     290.         0 time.01 
## 3     291.         0 time.01 
## 4     291.         0 time.01 
## # ℹ 3,182 more rows
…
subset2mspct(sun_evening_12.spct)

## Object: source_mspct [2 x 1]
## --- Member: time.01 ---
## Object: source_spct [1,593 x 2]
## Wavelength range 290-1000 nm, step 0.34-0.47 nm 
## Label: cosine.hour.9 
## Measured on 2023-06-12 18:38:00.379657 UTC 
## Measured at 60.227 N, 24.018 E; Viikki, Helsinki, FI 
## Variables:
##  w.length: Wavelength [nm]
##  s.e.irrad: Spectral energy irradiance [W m-2 nm-1] 
## --
## # A tibble: 1,593 × 2
##   w.length s.e.irrad
##      <dbl>     <dbl>
## 1     290          0
## 2     290.         0
## 3     291.         0
## 4     291.         0
## # ℹ 1,589 more rows
## --- Member: time.02 ---
## Object: source_spct [1,593 x 2]
## Wavelength range 290-1000 nm, step 0.34-0.47 nm 
## Label: cosine.hour.9 
## Measured on 2023-06-12 18:39:00.797266 UTC 
## Measured at 60.227 N, 24.018 E; Viikki, Helsinki, FI 
## Variables:
##  w.length: Wavelength [nm]
##  s.e.irrad: Spectral energy irradiance [W m-2 nm-1] 
## --
## # A tibble: 1,593 × 2
##   w.length s.e.irrad
##      <dbl>     <dbl>
## 1     290          0
## 2     290.         0
## 3     291.         0
## 4     291.         0
## # ℹ 1,589 more rows
## 
## --- END ---
…
test1.df <- data.frame(w.length = rep(200:210, 2),
                       s.e.irrad = rep(c(1, 2), c(11, 11)),
                       spectrum = factor(rep(c("A", "B"), c(11,11))))
subset2mspct(test1.df, member.class = "source_spct", idx.var = "spectrum")

## Object: source_mspct [2 x 1]
## --- Member: A ---
## Object: source_spct [11 x 2]
## Wavelength range 200-210 nm, step 1 nm 
## Variables:
##  w.length: Wavelength [nm]
##  s.e.irrad: Spectral energy irradiance [W m-2 nm-1] 
## --
## # A tibble: 11 × 2
##   w.length s.e.irrad
##      <int>     <dbl>
## 1      200         1
## 2      201         1
## 3      202         1
## 4      203         1
## # ℹ 7 more rows
## --- Member: B ---
## Object: source_spct [11 x 2]
## Wavelength range 200-210 nm, step 1 nm 
## Variables:
##  w.length: Wavelength [nm]
##  s.e.irrad: Spectral energy irradiance [W m-2 nm-1] 
## --
## # A tibble: 11 × 2
##   w.length s.e.irrad
##      <int>     <dbl>
## 1      200         2
## 2      201         2
## 3      202         2
## 4      203         2
## # ℹ 7 more rows
## 
## --- END ---
…
subset2mspct(test1.df, member.class = "source_spct", idx.var = "spectrum",
             time.unit = "day")

## Object: source_mspct [2 x 1]
## --- Member: A ---
## Object: source_spct [11 x 2]
## Wavelength range 200-210 nm, step 1 nm 
## Variables:
##  w.length: Wavelength [nm]
##  s.e.irrad: Spectral energy exposure [J d-1 m-2 nm-1] 
## --
## # A tibble: 11 × 2
##   w.length s.e.irrad
##      <int>     <dbl>
## 1      200         1
## 2      201         1
## 3      202         1
## 4      203         1
## # ℹ 7 more rows
## --- Member: B ---
## Object: source_spct [11 x 2]
## Wavelength range 200-210 nm, step 1 nm 
## Variables:
##  w.length: Wavelength [nm]
##  s.e.irrad: Spectral energy exposure [J d-1 m-2 nm-1] 
## --
## # A tibble: 11 × 2
##   w.length s.e.irrad
##      <int>     <dbl>
## 1      200         2
## 2      201         2
## 3      202         2
## 4      203         2
## # ℹ 7 more rows
## 
## --- END ---
…
Using defaults when variables have the names expected by default.

test2.df <- data.frame(w.length = 200:210, A = 1, B = 2)
split2source_mspct(x = test2.df)

## Object: source_mspct [2 x 1]
## --- Member: A ---
## Object: source_spct [11 x 2]
## Wavelength range 200-210 nm, step 1 nm 
## Variables:
##  w.length: Wavelength [nm]
##  s.e.irrad: Spectral energy irradiance [W m-2 nm-1] 
## --
## # A tibble: 11 × 2
##   w.length s.e.irrad
##      <int>     <dbl>
## 1      200         1
## 2      201         1
## 3      202         1
## 4      203         1
## # ℹ 7 more rows
## --- Member: B ---
## Object: source_spct [11 x 2]
## Wavelength range 200-210 nm, step 1 nm 
## Variables:
##  w.length: Wavelength [nm]
##  s.e.irrad: Spectral energy irradiance [W m-2 nm-1] 
## --
## # A tibble: 11 × 2
##   w.length s.e.irrad
##      <int>     <dbl>
## 1      200         2
## 2      201         2
## 3      202         2
## 4      203         2
## # ℹ 7 more rows
## 
## --- END ---
If variable names differ from the default expectation, they can be
named in the call.

test3.df <- data.frame(w = 200:210, A = 1, B = 2, z = "Z")
split2source_mspct(x = test3.df, w.length.var = "w", idx.var = "z")

## Object: source_mspct [2 x 1]
## --- Member: A ---
## Object: source_spct [11 x 3]
## Wavelength range 200-210 nm, step 1 nm 
## Variables:
##  w.length: Wavelength [nm]
##  s.e.irrad: Spectral energy irradiance [W m-2 nm-1] 
## --
## # A tibble: 11 × 3
##   w.length s.e.irrad z    
##      <int>     <dbl> <chr>
## 1      200         1 Z    
## 2      201         1 Z    
## 3      202         1 Z    
## 4      203         1 Z    
## # ℹ 7 more rows
## --- Member: B ---
## Object: source_spct [11 x 3]
## Wavelength range 200-210 nm, step 1 nm 
## Variables:
##  w.length: Wavelength [nm]
##  s.e.irrad: Spectral energy irradiance [W m-2 nm-1] 
## --
## # A tibble: 11 × 3
##   w.length s.e.irrad z    
##      <int>     <dbl> <chr>
## 1      200         2 Z    
## 2      201         2 Z    
## 3      202         2 Z    
## 4      203         2 Z    
## # ℹ 7 more rows
## 
## --- END ---

The interpretation of the data in the numeric columns other than the
wavelengths can be changed.

split2source_mspct(test2.df, spct.data.var = "s.q.irrad")

## Object: source_mspct [2 x 1]
## --- Member: A ---
## Object: source_spct [11 x 2]
## Wavelength range 200-210 nm, step 1 nm 
## Variables:
##  w.length: Wavelength [nm]
##  s.q.irrad: Spectral photon irradiance [mol s-1 m-2 nm-1] 
## --
## # A tibble: 11 × 2
##   w.length s.q.irrad
##      <int>     <dbl>
## 1      200         1
## 2      201         1
## 3      202         1
## 4      203         1
## # ℹ 7 more rows
## --- Member: B ---
## Object: source_spct [11 x 2]
## Wavelength range 200-210 nm, step 1 nm 
## Variables:
##  w.length: Wavelength [nm]
##  s.q.irrad: Spectral photon irradiance [mol s-1 m-2 nm-1] 
## --
## # A tibble: 11 × 2
##   w.length s.q.irrad
##      <int>     <dbl>
## 1      200         2
## 2      201         2
## 3      202         2
## 4      203         2
## # ℹ 7 more rows
## 
## --- END ---

Also in this case, it is possible to pass additional named arguments
to the constructor of spectral objects.

split2source_mspct(test2.df, spct.data.var = "s.q.irrad", time.unit = "day")

## Object: source_mspct [2 x 1]
## --- Member: A ---
## Object: source_spct [11 x 2]
## Wavelength range 200-210 nm, step 1 nm 
## Variables:
##  w.length: Wavelength [nm]
##  s.q.irrad: Spectral photon exposure [mol d-1 m-2 nm-1] 
## --
## # A tibble: 11 × 2
##   w.length s.q.irrad
##      <int>     <dbl>
## 1      200         1
## 2      201         1
## 3      202         1
## 4      203         1
## # ℹ 7 more rows
## --- Member: B ---
## Object: source_spct [11 x 2]
## Wavelength range 200-210 nm, step 1 nm 
## Variables:
##  w.length: Wavelength [nm]
##  s.q.irrad: Spectral photon exposure [mol d-1 m-2 nm-1] 
## --
## # A tibble: 11 × 2
##   w.length s.q.irrad
##      <int>     <dbl>
## 1      200         2
## 2      201         2
## 3      202         2
## 4      203         2
## # ℹ 7 more rows
## 
## --- END ---
…
sun_evening.mspct[1]

## Object: source_mspct [1 x 1]
## --- Member: time.01 ---
## Object: source_spct [1,593 x 2]
## Wavelength range 290-1000 nm, step 0.34-0.47 nm 
## Label: cosine.hour.9 
## Measured on 2023-06-12 18:38:00.379657 UTC 
## Measured at 60.227 N, 24.018 E; Viikki, Helsinki, FI 
## Variables:
##  w.length: Wavelength [nm]
##  s.e.irrad: Spectral energy irradiance [W m-2 nm-1] 
## --
## # A tibble: 1,593 × 2
##   w.length s.e.irrad
##      <dbl>     <dbl>
## 1     290          0
## 2     290.         0
## 3     291.         0
## 4     291.         0
## # ℹ 1,589 more rows
## 
## --- END ---

sun_evening.mspct[1:3]

## Object: source_mspct [3 x 1]
## --- Member: time.01 ---
## Object: source_spct [1,593 x 2]
## Wavelength range 290-1000 nm, step 0.34-0.47 nm 
## Label: cosine.hour.9 
## Measured on 2023-06-12 18:38:00.379657 UTC 
## Measured at 60.227 N, 24.018 E; Viikki, Helsinki, FI 
## Variables:
##  w.length: Wavelength [nm]
##  s.e.irrad: Spectral energy irradiance [W m-2 nm-1] 
## --
## # A tibble: 1,593 × 2
##   w.length s.e.irrad
##      <dbl>     <dbl>
## 1     290          0
## 2     290.         0
## 3     291.         0
## 4     291.         0
## # ℹ 1,589 more rows
## --- Member: time.02 ---
## Object: source_spct [1,593 x 2]
## Wavelength range 290-1000 nm, step 0.34-0.47 nm 
## Label: cosine.hour.9 
## Measured on 2023-06-12 18:39:00.797266 UTC 
## Measured at 60.227 N, 24.018 E; Viikki, Helsinki, FI 
## Variables:
##  w.length: Wavelength [nm]
##  s.e.irrad: Spectral energy irradiance [W m-2 nm-1] 
## --
## # A tibble: 1,593 × 2
##   w.length s.e.irrad
##      <dbl>     <dbl>
## 1     290          0
## 2     290.         0
## 3     291.         0
## 4     291.         0
## # ℹ 1,589 more rows
## --- Member: time.03 ---
## Object: source_spct [1,593 x 2]
## Wavelength range 290-1000 nm, step 0.34-0.47 nm 
## Label: cosine.hour.9 
## Measured on 2023-06-12 18:40:00.714554 UTC 
## Measured at 60.227 N, 24.018 E; Viikki, Helsinki, FI 
## Variables:
##  w.length: Wavelength [nm]
##  s.e.irrad: Spectral energy irradiance [W m-2 nm-1] 
## --
## # A tibble: 1,593 × 2
##   w.length s.e.irrad
##      <dbl>     <dbl>
## 1     290          0
## 2     290.         0
## 3     291.         0
## 4     291.         0
## # ℹ 1,589 more rows
## 
## --- END ---
…
sun_evening.mspct[[1]]

## Object: source_spct [1,593 x 2]
## Wavelength range 290-1000 nm, step 0.34-0.47 nm 
## Label: cosine.hour.9 
## Measured on 2023-06-12 18:38:00.379657 UTC 
## Measured at 60.227 N, 24.018 E; Viikki, Helsinki, FI 
## Variables:
##  w.length: Wavelength [nm]
##  s.e.irrad: Spectral energy irradiance [W m-2 nm-1] 
## --
## # A tibble: 1,593 × 2
##   w.length s.e.irrad
##      <dbl>     <dbl>
## 1     290          0
## 2     290.         0
## 3     291.         0
## 4     291.         0
## # ℹ 1,589 more rows
…
