Light-source spectral output — calc_source_output â€¢ photobiology
…
    Note

    This is a convenience function that adds no new functionality but makes
  it a little easier to plot lamp spectral emission data consistently. It
  automates interpolation, extrapolation/trimming and scaling.

    Examples

with(sun.data, calc_source_output(290:1100, w.length.in=w.length, s.irrad.in=s.e.irrad))
#> Object: source_spct [811 x 3]
#> Wavelength range 290 to 1100 nm, step 1 nm 
#> Time unit 1s
#> 
#> # A tibble: 811 x 3
#>    w.length    s.e.irrad    s.q.irrad
#>       <int>        <dbl>        <dbl>
#>  1      290           NA           NA
#>  2      291           NA           NA
#>  3      292           NA           NA
#>  4      293 2.609665e-06 6.391730e-12
#>  5      294 6.142401e-06 1.509564e-11
#>  6      295 2.176175e-05 5.366385e-11
#>  7      296 6.780119e-05 1.677626e-10
#>  8      297 1.533491e-04 3.807181e-10
#>  9      298 3.669677e-04 9.141345e-10
#> 10      299 7.845430e-04 1.960893e-09
#> # ... with 801 more rows
…
