Check validity of spectral objects — check_spct â€¢ photobiology
…
    See also

    Other data validity check functions: check_spectrum,
  check_w.length

    Examples

check_spct(sun.spct)
#> Object: source_spct [522 x 3]
#> Wavelength range 280 to 800 nm, step 0.9230769 to 1 nm 
#> Measured on 2010-06-22 09:51:00 UTC 
#> Measured at 60.2091078 N, 24.9647354 E 
#> Time unit 1s
#> 
#> # A tibble: 522 x 3
#>    w.length s.e.irrad s.q.irrad
#>       <dbl>     <dbl>     <dbl>
#>  1 280.0000         0         0
#>  2 280.9231         0         0
#>  3 281.8462         0         0
#>  4 282.7692         0         0
#>  5 283.6923         0         0
#>  6 284.6154         0         0
#>  7 285.5385         0         0
#>  8 286.4615         0         0
#>  9 287.3846         0         0
#> 10 288.3077         0         0
#> # ... with 512 more rows
…
