CIE xyz chromaticity coordinates 2 deg data — ciexyzCC2.spct â€¢ photobiology
…
    See also

    Other Visual response data examples: beesxyzCMF.spct,
  ciev10.spct, ciev2.spct,
  ciexyzCC10.spct,
  ciexyzCMF10.spct,
  ciexyzCMF2.spct

    Examples

ciexyzCC2.spct
#> Object: chroma_spct [441 x 4]
#> Wavelength range 390 to 830 nm, step 1 nm 
#> 
#> # A tibble: 441 x 4
#>    w.length     x      y     z
#>       <int> <dbl>  <dbl> <dbl>
#>  1      390 0.166 0.0183 0.815
#>  2      391 0.166 0.0185 0.815
#>  3      392 0.166 0.0186 0.815
#>  4      393 0.166 0.0187 0.815
#>  5      394 0.166 0.0187 0.815
#>  6      395 0.166 0.0187 0.815
#>  7      396 0.166 0.0187 0.815
#>  8      397 0.166 0.0187 0.816
#>  9      398 0.165 0.0186 0.816
#> 10      399 0.165 0.0184 0.816
#> # ... with 431 more rows
…
