Linear energy CIE xyz colour matching function (CMF) 10 deg data — ciexyzCMF10.spct â€¢ photobiology
…
    See also

    Other Visual response data examples: beesxyzCMF.spct,
  ciev10.spct, ciev2.spct,
  ciexyzCC10.spct,
  ciexyzCC2.spct,
  ciexyzCMF2.spct

    Examples

ciexyzCMF10.spct
#> Object: chroma_spct [441 x 4]
#> Wavelength range 390 to 830 nm, step 1 nm 
#> 
#> # A tibble: 441 x 4
#>    w.length           x            y          z
#>       <int>       <dbl>        <dbl>      <dbl>
#>  1      390 0.002952420 0.0004076779 0.01318752
#>  2      391 0.003577275 0.0004977769 0.01597879
#>  3      392 0.004332146 0.0006064754 0.01935758
#>  4      393 0.005241609 0.0007370040 0.02343758
#>  5      394 0.006333902 0.0008929388 0.02835021
#>  6      395 0.007641137 0.0010781660 0.03424588
#>  7      396 0.009199401 0.0012968160 0.04129467
#>  8      397 0.011048690 0.0015531590 0.04968641
#>  9      398 0.013232620 0.0018514630 0.05962964
#> 10      399 0.015797910 0.0021957950 0.07134926
#> # ... with 431 more rows
…
