CIE D65 illuminant data — D65.illuminant.spct â€¢ photobiology
…
    Examples

D65.illuminant.spct
#> Object: source_spct [107 x 2]
#> Wavelength range 300 to 830 nm, step 5 nm 
#> Time unit 1s
#> Spectral data normalized to 1 at 560 nm 
#> 
#> # A tibble: 107 x 2
#>    w.length s.e.irrad
#>       <dbl>     <dbl>
#>  1      300  0.000341
#>  2      305  0.016643
#>  3      310  0.032945
#>  4      315  0.117652
#>  5      320  0.202360
#>  6      325  0.286447
#>  7      330  0.370535
#>  8      335  0.385011
#>  9      340  0.399488
#> 10      345  0.424302
#> # ... with 97 more rows
…
