Extract or replace parts of a spectrum — Extract â€¢ photobiology
…
    See also

    subset.data.frame and trim_spct

    Examples

sun.spct[sun.spct$w.length > 400, ]
#> Object: source_spct [400 x 3]
#> Wavelength range 401 to 800 nm, step 1 nm 
#> Measured on 2010-06-22 09:51:00 UTC 
#> Measured at 60.2091078 N, 24.9647354 E 
#> Time unit 1s
#> 
#> # A tibble: 400 × 3
#>    w.length s.e.irrad    s.q.irrad
#> *     <dbl>     <dbl>        <dbl>
#> 1       401 0.6261742 2.098967e-06
#> 2       402 0.6497388 2.183388e-06
#> 3       403 0.6207287 2.091091e-06
#> 4       404 0.6370489 2.151395e-06
#> 5       405 0.6263786 2.120596e-06
#> 6       406 0.5996440 2.035099e-06
#> 7       407 0.5951226 2.024729e-06
#> 8       408 0.6256209 2.133720e-06
#> 9       409 0.6615421 2.261761e-06
#> 10      410 0.5605505 1.921165e-06
#> # ... with 390 more rows
subset(sun.spct, w.length > 400)
#> Object: source_spct [400 x 3]
#> Wavelength range 401 to 800 nm, step 1 nm 
#> Time unit 1s
#> 
#> # A tibble: 400 × 3
#>    w.length s.e.irrad    s.q.irrad
#> *     <dbl>     <dbl>        <dbl>
#> 1       401 0.6261742 2.098967e-06
#> 2       402 0.6497388 2.183388e-06
#> 3       403 0.6207287 2.091091e-06
#> 4       404 0.6370489 2.151395e-06
#> 5       405 0.6263786 2.120596e-06
#> 6       406 0.5996440 2.035099e-06
#> 7       407 0.5951226 2.024729e-06
#> 8       408 0.6256209 2.133720e-06
#> 9       409 0.6615421 2.261761e-06
#> 10      410 0.5605505 1.921165e-06
#> # ... with 390 more rows

tmp.spct <- sun.spct
tmp.spct[tmp.spct$s.e.irrad < 1e-5 , "s.e.irrad"] <- 0
e2q(tmp.spct[ , c("w.length", "s.e.irrad")]) # restore data consistency!
#> Object: source_spct [522 x 3]
#> Wavelength range 280 to 800 nm, step 0.9230769 to 1 nm 
#> Time unit 1s
#> 
#> # A tibble: 522 × 3
#>    w.length s.e.irrad s.q.irrad
#>       <dbl>     <dbl>     <dbl>
#> 1  280.0000         0         0
#> 2  280.9231         0         0
#> 3  281.8462         0         0
#> 4  282.7692         0         0
#> 5  283.6923         0         0
#> 6  284.6154         0         0
#> 7  285.5385         0         0
#> 8  286.4615         0         0
#> 9  287.3846         0         0
#> 10 288.3077         0         0
#> # ... with 512 more rows
…
