Collection-of-spectra constructor — generic_mspct â€¢ photobiology
…
    Note

    Setting class = source_spct or class = source_mspct makes no difference

    Examples

filter_mspct(list(polyester.spct, yellow_gel.spct))
#> Object: filter_mspct [2 x 1]
#> --- Member: spct_1 ---
#> Object: filter_spct [611 x 2]
#> Wavelength range 190 to 800 nm, step 1 nm 
#> Label: clear polyester film, 125um thick 
#> 
#> # A tibble: 611 x 2
#>    w.length    Tfr
#>       <int>  <dbl>
#>  1      190 0.0110
#>  2      191 0.0100
#>  3      192 0.0110
#>  4      193 0.0150
#>  5      194 0.0160
#>  6      195 0.0120
#>  7      196 0.0110
#>  8      197 0.0110
#>  9      198 0.0110
#> 10      199 0.0110
#> # ... with 601 more rows
#> --- Member: spct_2 ---
#> Object: filter_spct [611 x 2]
#> Wavelength range 190 to 800 nm, step 1 nm 
#> Label: yellow theatrical 'gel', Rosco supergel no. 312, 'canary yellow' 
#> 
#> # A tibble: 611 x 2
#>    w.length       Tfr
#>       <int>     <dbl>
#>  1      190 0.00100  
#>  2      191 0.00350  
#>  3      192 0.00400  
#>  4      193 0.0000100
#>  5      194 0.0000100
#>  6      195 0.0000100
#>  7      196 0.0000100
#>  8      197 0.0000100
#>  9      198 0.0000100
#> 10      199 0.0000100
#> # ... with 601 more rows
…
