Get peaks and valleys in a spectrum — get_peaks â€¢ photobiology
…
      strict
      logical Flag: if TRUE, an element must be strictly greater than
all other values in its window to be considered a peak. Default: TRUE.

      x_unit
      character Vector of texts to be pasted at end of labels built
from x value at peaks.

      x_digits
      numeric Number of significant digits in wavelength label.

    Value

    A data frame with variables w.length and s.irrad with their values at
  the peaks or valleys plus a character variable of labels.

    See also

    Other peaks and valleys functions: find_peaks,
  peaks, valleys

    Examples

with(sun.spct, get_peaks(w.length, s.e.irrad))
#>      x         y label
#> 1  321 0.1822031   321
#> 2  330 0.3295190   330
#> 3  335 0.3129253   335
#> 4  340 0.3352353   340
#> 5  343 0.3380052   343
#> 6  347 0.3207918   347
#> 7  350 0.3453572   350
#> 8  354 0.3758625   354
#> 9  360 0.3707068   360
#> 10 366 0.4491898   366
#> 11 370 0.4393233   370
#> 12 378 0.4969714   378
#> 13 381 0.4362110   381
#> 14 385 0.3915446   385
#> 15 391 0.4822105   391
#> 16 395 0.4699886   395
#> 17 402 0.6497388   402
#> 18 409 0.6615421   409
#> 19 412 0.6742498   412
#> 20 416 0.6761818   416
#> 21 421 0.6701269   421
#> 22 426 0.6388873   426
#> 23 436 0.7336607   436
#> 24 442 0.7188581   442
#> 25 451 0.8204633   451
#> 26 457 0.7984935   457
#> 27 461 0.7711277   461
#> 28 468 0.7665312   468
#> 29 472 0.7693357   472
#> 30 475 0.7724634   475
#> 31 478 0.7869773   478
#> 32 482 0.7832759   482
#> 33 490 0.7728111   490
#>  [ reached getOption("max.print") -- omitted 43 rows ]
…
