Insert new wavelength values into a spectrum — insert_spct_hinges • photobiology
…
    Inserting wavelengths values "hinges" immediately before and after a
  discontinuity in the SWF, greatly reduces the errors caused by
  interpolating the weighted irradiance during integration of the effective
  spectral irradiance. This is specially true when data has a large
  wavelength step size.

    Examples

insert_spct_hinges(sun.spct, c(399.99,400.00,699.99,700.00))
#> Object: source_spct [524 x 3]
#> Wavelength range 280 to 800 nm, step 0.01 to 1 nm 
#> Time unit 1s
#> 
#> # A tibble: 524 x 3
#>    w.length s.e.irrad s.q.irrad
#>       <dbl>     <dbl>     <dbl>
#>  1     280.        0.        0.
#>  2     281.        0.        0.
#>  3     282.        0.        0.
#>  4     283.        0.        0.
#>  5     284.        0.        0.
#>  6     285.        0.        0.
#>  7     286.        0.        0.
#>  8     286.        0.        0.
#>  9     287.        0.        0.
#> 10     288.        0.        0.
#> # ... with 514 more rows
insert_spct_hinges(sun.spct,
                   c(199.99,200.00,399.50,399.99,400.00,699.99,
                         700.00,799.99,1000.00))
#> Object: source_spct [526 x 3]
#> Wavelength range 280 to 800 nm, step 0.01 to 1 nm 
#> Time unit 1s
#> 
#> # A tibble: 526 x 3
#>    w.length s.e.irrad s.q.irrad
#>       <dbl>     <dbl>     <dbl>
#>  1     280.        0.        0.
#>  2     281.        0.        0.
#>  3     282.        0.        0.
#>  4     283.        0.        0.
#>  5     284.        0.        0.
#>  6     285.        0.        0.
#>  7     286.        0.        0.
#>  8     286.        0.        0.
#>  9     287.        0.        0.
#> 10     288.        0.        0.
#> # ... with 516 more rows
…
