Map a spectrum to new wavelength values. — interpolate_spct â€¢ photobiology
…
    The default fill = NA fills extrapolated values with NA. Giving NULL as
argument for fill deletes wavelengths outside the input data range from the
returned spectrum. A numerical value can be also be provided as fill. This function calls
interpolate_spectrum for each non-wavelength column in the input spectra object.

    Examples

interpolate_spct(sun.spct, 400:500, NA)
#> Object: source_spct [101 x 3]
#> Wavelength range 400 to 500 nm, step 1 nm 
#> Measured on 2010-06-22 09:51:00 UTC 
#> Measured at 60.2091078 N, 24.9647355 E 
#> Time unit 1s
#> 
#> # A tibble: 101 x 3
#>    w.length s.e.irrad  s.q.irrad
#>       <int>     <dbl>      <dbl>
#>  1      400     0.608 0.00000203
#>  2      401     0.626 0.00000210
#>  3      402     0.650 0.00000218
#>  4      403     0.621 0.00000209
#>  5      404     0.637 0.00000215
#>  6      405     0.626 0.00000212
#>  7      406     0.600 0.00000204
#>  8      407     0.595 0.00000202
#>  9      408     0.626 0.00000213
#> 10      409     0.662 0.00000226
#> # ... with 91 more rows
interpolate_spct(sun.spct, 400:500, NULL)
#> Object: source_spct [101 x 3]
#> Wavelength range 400 to 500 nm, step 1 nm 
#> Measured on 2010-06-22 09:51:00 UTC 
#> Measured at 60.2091078 N, 24.9647355 E 
#> Time unit 1s
#> 
#> # A tibble: 101 x 3
#>    w.length s.e.irrad  s.q.irrad
#>       <int>     <dbl>      <dbl>
#>  1      400     0.608 0.00000203
#>  2      401     0.626 0.00000210
#>  3      402     0.650 0.00000218
#>  4      403     0.621 0.00000209
#>  5      404     0.637 0.00000215
#>  6      405     0.626 0.00000212
#>  7      406     0.600 0.00000204
#>  8      407     0.595 0.00000202
#>  9      408     0.626 0.00000213
#> 10      409     0.662 0.00000226
#> # ... with 91 more rows
interpolate_spct(sun.spct, seq(200, 1000, by=0.1), 0)
#> Object: source_spct [8,001 x 3]
#> Wavelength range 200 to 1000 nm, step 0.1 nm 
#> Measured on 2010-06-22 09:51:00 UTC 
#> Measured at 60.2091078 N, 24.9647355 E 
#> Time unit 1s
#> 
#> # A tibble: 8,001 x 3
#>    w.length s.e.irrad s.q.irrad
#>       <dbl>     <dbl>     <dbl>
#>  1     200.        0.        0.
#>  2     200.        0.        0.
#>  3     200.        0.        0.
#>  4     200.        0.        0.
#>  5     200.        0.        0.
#>  6     200.        0.        0.
#>  7     201.        0.        0.
#>  8     201.        0.        0.
#>  9     201.        0.        0.
#> 10     201.        0.        0.
#> # ... with 7,991 more rows
interpolate_spct(sun.spct, c(400,500), length.out=201)
#> Object: source_spct [201 x 3]
#> Wavelength range 400 to 500 nm, step 0.5 nm 
#> Measured on 2010-06-22 09:51:00 UTC 
#> Measured at 60.2091078 N, 24.9647355 E 
#> Time unit 1s
#> 
#> # A tibble: 201 x 3
#>    w.length s.e.irrad  s.q.irrad
#>       <dbl>     <dbl>      <dbl>
#>  1     400.     0.608 0.00000203
#>  2     400.     0.617 0.00000207
#>  3     401.     0.626 0.00000210
#>  4     402.     0.638 0.00000214
#>  5     402.     0.650 0.00000218
#>  6     402.     0.635 0.00000214
#>  7     403.     0.621 0.00000209
#>  8     404.     0.629 0.00000212
#>  9     404.     0.637 0.00000215
#> 10     404.     0.632 0.00000214
#> # ... with 191 more rows
…
