Green Arabidopsis leaf spectral reflectance. — Ler_leaf_rflt.spct â€¢ photobiology
…
    Examples

Ler_leaf_rflt.spct
#> Object: reflector_spct [1,750 x 2]
#> Wavelength range 250 to 850 nm, step 0.07635631 to 0.3766982 nm 
#> 
#> # A tibble: 1,750 x 2
#>    w.length        Rfr
#>       <dbl>      <dbl>
#>  1 250.0000 0.04668778
#>  2 250.2261 0.04668481
#>  3 250.6028 0.04667985
#>  4 250.9794 0.04667489
#>  5 251.3561 0.04666993
#>  6 251.7327 0.04666497
#>  7 252.1092 0.04666001
#>  8 252.4858 0.04665505
#>  9 252.8623 0.04665010
#> 10 253.2387 0.04664514
#> # ... with 1,740 more rows
…
