Peaks or local maxima — peaks â€¢ photobiology
…
    See also

    Other peaks and valleys functions: find_peaks,
  get_peaks, valleys

    Examples

peaks(sun.spct)
#> Object: source_spct [76 x 2]
#> Wavelength range 321 to 798 nm, step 3 to 20 nm 
#> Measured on 2010-06-22 09:51:00 UTC 
#> Measured at 60.2091078 N, 24.9647354 E 
#> Time unit 1s
#> 
#> # A tibble: 76 × 2
#>    w.length s.e.irrad
#> *     <dbl>     <dbl>
#> 1       321 0.1822031
#> 2       330 0.3295190
#> 3       335 0.3129253
#> 4       340 0.3352353
#> 5       343 0.3380052
#> 6       347 0.3207918
#> 7       350 0.3453572
#> 8       354 0.3758625
#> 9       360 0.3707068
#> 10      366 0.4491898
#> # ... with 66 more rows
…
