Row-bind spectra — rbindspct â€¢ photobiology
…
    Examples

spct <- rbindspct(list(sun.spct, sun.spct))
spct
#> Object: source_spct [1,044 x 4]
#> containing 2 spectra in long form
#> Wavelength range 280 to 800 nm, step 0.9230769 to 1 nm 
#> spct_1 measured on 2010-06-22 09:51:00 UTC
#> spct_2 measured on 2010-06-22 09:51:00 UTC 
#> spct_1 measured at 60.2091078 N, 24.9647354 E
#> spct_2 measured at 60.2091078 N, 24.9647354 E 
#> Time unit 1s
#> 
#> # A tibble: 1,044 x 4
#>    w.length s.e.irrad spct.idx s.q.irrad
#>       <dbl>     <dbl>   <fctr>     <dbl>
#>  1 280.0000         0   spct_1         0
#>  2 280.9231         0   spct_1         0
#>  3 281.8462         0   spct_1         0
#>  4 282.7692         0   spct_1         0
#>  5 283.6923         0   spct_1         0
#>  6 284.6154         0   spct_1         0
#>  7 285.5385         0   spct_1         0
#>  8 286.4615         0   spct_1         0
#>  9 287.3846         0   spct_1         0
#> 10 288.3077         0   spct_1         0
#> # ... with 1,034 more rows
…
