Daily solar spectral irradiance (simulated) — sun.daily.spct • photobiology
…
    Examples

sun.daily.spct
#> Object: source_spct [522 x 3]
#> Wavelength range 280 to 800 nm, step 0.9 to 1 nm 
#> Label: sunlight, simulated 
#> Measured on 2012-06-01 UTC 
#> Measured at 60.2091078 N, 24.9647355 E 
#> Time unit 86400s (~1 days)
#> 
#> # A tibble: 522 x 3
#>    w.length s.e.irrad s.q.irrad
#>       <dbl>     <dbl>     <dbl>
#>  1     280.        0.        0.
#>  2     281.        0.        0.
#>  3     282.        0.        0.
#>  4     283.        0.        0.
#>  5     284.        0.        0.
#>  6     284.        0.        0.
#>  7     285.        0.        0.
#>  8     286.        0.        0.
#>  9     287.        0.        0.
#> 10     288.        0.        0.
#> # ... with 512 more rows
…
