Convert transmittance into absorptance. — T2Afr â€¢ photobiology
…
    Other quantity conversion functions: A2T,
  T2A, T2T,
  as_energy, as_quantum_mol,
  as_quantum,
  e2qmol_multipliers,
  e2quantum_multipliers, e2q,
  q2e

    Examples

T2Afr(Ler_leaf.spct)
#> Object: object_spct [2,401 x 4]
#> Wavelength range 250 to 850 nm, step 0.25 nm 
#> 
#> # A tibble: 2,401 x 4
#>    w.length   Tfr        Rfr   Afr
#>  *    <dbl> <dbl>      <dbl> <dbl>
#>  1   250.00     0 0.04668778     1
#>  2   250.25     0 0.04668449     1
#>  3   250.50     0 0.04668120     1
#>  4   250.75     0 0.04667791     1
#>  5   251.00     0 0.04667462     1
#>  6   251.25     0 0.04667132     1
#>  7   251.50     0 0.04666803     1
#>  8   251.75     0 0.04666474     1
#>  9   252.00     0 0.04666145     1
#> 10   252.25     0 0.04665816     1
#> # ... with 2,391 more rows
…
