Tag a spectrum — tag â€¢ photobiology
…
    See also

    Other tagging and related functions: is_tagged,
  untag, wb2rect_spct,
  wb2spct, wb2tagged_spct

    Examples

tag(sun.spct)
#> Object: source_spct [523 x 6]
#> Wavelength range 280 to 800 nm, step 1.023182e-12 to 1 nm 
#> Time unit 1s
#> 
#> # A tibble: 523 x 6
#>    w.length s.e.irrad s.q.irrad wl.color wb.color   wb.f
#>       <dbl>     <dbl>     <dbl>    <chr>    <chr> <fctr>
#>  1 280.0000         0         0  #000000  #554340  Total
#>  2 280.9231         0         0  #000000  #554340  Total
#>  3 281.8462         0         0  #000000  #554340  Total
#>  4 282.7692         0         0  #000000  #554340  Total
#>  5 283.6923         0         0  #000000  #554340  Total
#>  6 284.6154         0         0  #000000  #554340  Total
#>  7 285.5385         0         0  #000000  #554340  Total
#>  8 286.4615         0         0  #000000  #554340  Total
#>  9 287.3846         0         0  #000000  #554340  Total
#> 10 288.3077         0         0  #000000  #554340  Total
#> # ... with 513 more rows
tag(sun.spct, list(A = waveband(c(300,3005))))
#> Object: source_spct [524 x 6]
#> Wavelength range 280 to 800 nm, step 1.023182e-12 to 1 nm 
#> Time unit 1s
#> 
#> # A tibble: 524 x 6
#>    w.length s.e.irrad s.q.irrad wl.color wb.color   wb.f
#>       <dbl>     <dbl>     <dbl>    <chr>    <chr> <fctr>
#>  1 280.0000         0         0  #000000     <NA>   <NA>
#>  2 280.9231         0         0  #000000     <NA>   <NA>
#>  3 281.8462         0         0  #000000     <NA>   <NA>
#>  4 282.7692         0         0  #000000     <NA>   <NA>
#>  5 283.6923         0         0  #000000     <NA>   <NA>
#>  6 284.6154         0         0  #000000     <NA>   <NA>
#>  7 285.5385         0         0  #000000     <NA>   <NA>
#>  8 286.4615         0         0  #000000     <NA>   <NA>
#>  9 287.3846         0         0  #000000     <NA>   <NA>
#> 10 288.3077         0         0  #000000     <NA>   <NA>
#> # ... with 514 more rows
…
