Trim (or expand) head and/or tail of a spectrum — trim_spct â€¢ photobiology
…
    Other trim functions: clip_wl,
  trim_waveband, trim_wl

    Examples

trim_spct(sun.spct, low.limit=300)
#> Object: source_spct [501 x 3]
#> Wavelength range 300 to 800 nm, step 1 nm 
#> Label: sunlight, simulated 
#> Measured on 2010-06-22 09:51:00 UTC 
#> Measured at 60.2091078 N, 24.9647355 E 
#> Time unit 1s
#> 
#> # A tibble: 501 x 3
#>    w.length s.e.irrad     s.q.irrad
#>  *    <dbl>     <dbl>         <dbl>
#>  1     300.   0.00126 0.00000000317
#>  2     301.   0.00262 0.00000000660
#>  3     302.   0.00392 0.00000000990
#>  4     303.   0.00897 0.0000000227 
#>  5     304.   0.0117  0.0000000296 
#>  6     305.   0.0180  0.0000000459 
#>  7     306.   0.0208  0.0000000531 
#>  8     307.   0.0306  0.0000000785 
#>  9     308.   0.0400  0.000000103  
#> 10     309.   0.0416  0.000000108  
#> # ... with 491 more rows
trim_spct(sun.spct, low.limit=300, fill=NULL)
#> Object: source_spct [501 x 3]
#> Wavelength range 300 to 800 nm, step 1 nm 
#> Label: sunlight, simulated 
#> Measured on 2010-06-22 09:51:00 UTC 
#> Measured at 60.2091078 N, 24.9647355 E 
#> Time unit 1s
#> 
#> # A tibble: 501 x 3
#>    w.length s.e.irrad     s.q.irrad
#>  *    <dbl>     <dbl>         <dbl>
#>  1     300.   0.00126 0.00000000317
#>  2     301.   0.00262 0.00000000660
#>  3     302.   0.00392 0.00000000990
#>  4     303.   0.00897 0.0000000227 
#>  5     304.   0.0117  0.0000000296 
#>  6     305.   0.0180  0.0000000459 
#>  7     306.   0.0208  0.0000000531 
#>  8     307.   0.0306  0.0000000785 
#>  9     308.   0.0400  0.000000103  
#> 10     309.   0.0416  0.000000108  
#> # ... with 491 more rows
trim_spct(sun.spct, low.limit=300, fill=NA)
#> Object: source_spct [523 x 3]
#> Wavelength range 280 to 800 nm, step 1.023182e-12 to 1 nm 
#> Label: sunlight, simulated 
#> Measured on 2010-06-22 09:51:00 UTC 
#> Measured at 60.2091078 N, 24.9647355 E 
#> Time unit 1s
#> 
#> # A tibble: 523 x 3
#>    w.length s.e.irrad s.q.irrad
#>       <dbl>     <dbl>     <dbl>
#>  1     280.        NA        NA
#>  2     281.        NA        NA
#>  3     282.        NA        NA
#>  4     283.        NA        NA
#>  5     284.        NA        NA
#>  6     285.        NA        NA
#>  7     286.        NA        NA
#>  8     286.        NA        NA
#>  9     287.        NA        NA
#> 10     288.        NA        NA
#> # ... with 513 more rows
trim_spct(sun.spct, low.limit=300, fill=0.0)
#> Object: source_spct [523 x 3]
#> Wavelength range 280 to 800 nm, step 1.023182e-12 to 1 nm 
#> Label: sunlight, simulated 
#> Measured on 2010-06-22 09:51:00 UTC 
#> Measured at 60.2091078 N, 24.9647355 E 
#> Time unit 1s
#> 
#> # A tibble: 523 x 3
#>    w.length s.e.irrad s.q.irrad
#>       <dbl>     <dbl>     <dbl>
#>  1     280.        0.        0.
#>  2     281.        0.        0.
#>  3     282.        0.        0.
#>  4     283.        0.        0.
#>  5     284.        0.        0.
#>  6     285.        0.        0.
#>  7     286.        0.        0.
#>  8     286.        0.        0.
#>  9     287.        0.        0.
#> 10     288.        0.        0.
#> # ... with 513 more rows
trim_spct(sun.spct, range = c(300, 400))
#> Object: source_spct [101 x 3]
#> Wavelength range 300 to 400 nm, step 1 nm 
#> Label: sunlight, simulated 
#> Measured on 2010-06-22 09:51:00 UTC 
#> Measured at 60.2091078 N, 24.9647355 E 
#> Time unit 1s
#> 
#> # A tibble: 101 x 3
#>    w.length s.e.irrad     s.q.irrad
#>  *    <dbl>     <dbl>         <dbl>
#>  1     300.   0.00126 0.00000000317
#>  2     301.   0.00262 0.00000000660
#>  3     302.   0.00392 0.00000000990
#>  4     303.   0.00897 0.0000000227 
#>  5     304.   0.0117  0.0000000296 
#>  6     305.   0.0180  0.0000000459 
#>  7     306.   0.0208  0.0000000531 
#>  8     307.   0.0306  0.0000000785 
#>  9     308.   0.0400  0.000000103  
#> 10     309.   0.0416  0.000000108  
#> # ... with 91 more rows
trim_spct(sun.spct, range = c(300, NA))
#> Object: source_spct [501 x 3]
#> Wavelength range 300 to 800 nm, step 1 nm 
#> Label: sunlight, simulated 
#> Measured on 2010-06-22 09:51:00 UTC 
#> Measured at 60.2091078 N, 24.9647355 E 
#> Time unit 1s
#> 
#> # A tibble: 501 x 3
#>    w.length s.e.irrad     s.q.irrad
#>  *    <dbl>     <dbl>         <dbl>
#>  1     300.   0.00126 0.00000000317
#>  2     301.   0.00262 0.00000000660
#>  3     302.   0.00392 0.00000000990
#>  4     303.   0.00897 0.0000000227 
#>  5     304.   0.0117  0.0000000296 
#>  6     305.   0.0180  0.0000000459 
#>  7     306.   0.0208  0.0000000531 
#>  8     307.   0.0306  0.0000000785 
#>  9     308.   0.0400  0.000000103  
#> 10     309.   0.0416  0.000000108  
#> # ... with 491 more rows
trim_spct(sun.spct, range = c(NA, 400))
#> Object: source_spct [122 x 3]
#> Wavelength range 280 to 400 nm, step 0.9230769 to 1 nm 
#> Label: sunlight, simulated 
#> Measured on 2010-06-22 09:51:00 UTC 
#> Measured at 60.2091078 N, 24.9647355 E 
#> Time unit 1s
#> 
#> # A tibble: 122 x 3
#>    w.length s.e.irrad s.q.irrad
#>  *    <dbl>     <dbl>     <dbl>
#>  1     280.        0.        0.
#>  2     281.        0.        0.
#>  3     282.        0.        0.
#>  4     283.        0.        0.
#>  5     284.        0.        0.
#>  6     285.        0.        0.
#>  7     286.        0.        0.
#>  8     286.        0.        0.
#>  9     287.        0.        0.
#> 10     288.        0.        0.
#> # ... with 112 more rows
…
